{
  "gradinita": [
    {
      "id": "ID",
      "name": "NAME",
      "age": "AGE",
      "grupa": "GROUP",
      "mancare": "FOOD",
      "ora_mesei": "LUNCH TIME"
    },
    {
      "id": "xzkYx4k",
      "name": "",
      "age": "",
      "grupa": "",
      "mancare": "",
      "ora_mesei": ""
    },
    {
      "id": "o57HRcA",
      "name": "",
      "age": "",
      "grupa": "",
      "mancare": "",
      "ora_mesei": ""
    },
    {
      "id": "woIsBti",
      "name": "",
      "age": "",
      "grupa": "",
      "mancare": "",
      "ora_mesei": ""
    }
  ]
}